[gd_scene load_steps=2 format=3 uid="uid://2613jjkn8qw"]

[ext_resource type="Script" path="res://Map.gd" id="1_w7j6d"]

[node name="Map" type="Panel"]
offset_left = -5.0
offset_top = 93.0
offset_right = -5.0
offset_bottom = 93.0
mouse_filter = 1
script = ExtResource("1_w7j6d")

[connection signal="gui_input" from="." to="." method="_on_gui_input"]
