[gd_scene load_steps=3 format=3 uid="uid://drgskecya45s0"]

[ext_resource type="Script" path="res://ZoomPanel.gd" id="1_rdm2h"]
[ext_resource type="PackedScene" uid="uid://2613jjkn8qw" path="res://Map.tscn" id="2_58j6g"]

[node name="ZoomPanel" type="Control"]
layout_mode = 3
anchors_preset = 15
anchor_right = 1.0
anchor_bottom = 1.0
grow_horizontal = 2
grow_vertical = 2
size_flags_horizontal = 3
size_flags_vertical = 3
mouse_filter = 1
script = ExtResource("1_rdm2h")

[node name="SubViewportContainer" type="SubViewportContainer" parent="."]
anchors_preset = 15
anchor_right = 1.0
anchor_bottom = 1.0
grow_horizontal = 2
grow_vertical = 2
stretch = true

[node name="SubViewport" type="SubViewport" parent="SubViewportContainer"]
physics_object_picking = true
size = Vector2i(1152, 648)

[node name="Map" parent="SubViewportContainer/SubViewport" instance=ExtResource("2_58j6g")]
anchors_preset = 15
anchor_right = 1.0
anchor_bottom = 1.0
offset_left = 0.0
offset_top = 0.0
offset_right = 0.0
offset_bottom = 0.0
grow_horizontal = 2
grow_vertical = 2

[node name="Camera2D" type="Camera2D" parent="SubViewportContainer/SubViewport"]
unique_name_in_owner = true
anchor_mode = 0
current = true

[node name="HScrollBar" type="HScrollBar" parent="."]
unique_name_in_owner = true
anchors_preset = 12
anchor_top = 1.0
anchor_right = 1.0
anchor_bottom = 1.0
offset_top = -8.0
grow_horizontal = 2
grow_vertical = 0

[node name="VScrollBar" type="VScrollBar" parent="."]
unique_name_in_owner = true
anchors_preset = 11
anchor_left = 1.0
anchor_right = 1.0
anchor_bottom = 1.0
offset_left = -8.0
grow_horizontal = 0
grow_vertical = 2

[connection signal="gui_input" from="." to="." method="_on_gui_input"]
[connection signal="scrolling" from="HScrollBar" to="." method="_on_h_scroll_bar_scrolling"]
[connection signal="scrolling" from="VScrollBar" to="." method="_on_v_scroll_bar_scrolling"]
